\relax 
\providecommand\babel@aux[2]{}
\@nameuse{bbl@beforestart}
\catcode `:\active 
\catcode `;\active 
\catcode `!\active 
\catcode `?\active 
\providecommand\hyper@newdestlabel[2]{}
\providecommand\HyField@AuxAddToFields[1]{}
\providecommand\HyField@AuxAddToCoFields[2]{}
\providecommand \oddpage@label [2]{}
\babel@aux{french}{}
\@writefile{toc}{\contentsline {section}{\numberline {1}Introduction}{2}{section.1}\protected@file@percent }
\@writefile{toc}{\contentsline {section}{\numberline {2}Mersenne Twister}{2}{section.2}\protected@file@percent }
\@writefile{toc}{\contentsline {section}{\numberline {3}Génération de nombres aléatoires uniformes entre A et B}{3}{section.3}\protected@file@percent }
\@writefile{toc}{\contentsline {section}{\numberline {4}Reproduction de lois de distribution empiriques discrètes}{3}{section.4}\protected@file@percent }
\@writefile{toc}{\contentsline {subsection}{\numberline {4.1}Premier exemple : Classes A, B et C}{4}{subsection.4.1}\protected@file@percent }
\@writefile{toc}{\contentsline {subsection}{\numberline {4.2}Exemple général : Le cholestérol HDL}{5}{subsection.4.2}\protected@file@percent }
\newlabel{cholesterol}{{4.2}{5}{Exemple général : Le cholestérol HDL}{subsection.4.2}{}}
\@writefile{toc}{\contentsline {section}{\numberline {5}Reproduction de lois de distribution continues}{6}{section.5}\protected@file@percent }
\@writefile{toc}{\contentsline {section}{\numberline {6}Simulation de lois de distribution non inversibles}{7}{section.6}\protected@file@percent }
\@writefile{lof}{\contentsline {figure}{\numberline {1}{\ignorespaces Répartition des résultats obtenus en simulant l'inverse d'une loi exponentielle réduite avec 1000000 tirages}}{8}{figure.1}\protected@file@percent }
\newlabel{fig:rne}{{1}{8}{Répartition des résultats obtenus en simulant l'inverse d'une loi exponentielle réduite avec 1000000 tirages}{figure.1}{}}
\@writefile{loa}{\contentsline {algocf}{\numberline {1}{\ignorespaces Algorithme général de rejet}}{8}{algocf.1}\protected@file@percent }
\@writefile{toc}{\contentsline {subsection}{\numberline {6.1}Première implémentation}{8}{subsection.6.1}\protected@file@percent }
\@writefile{lof}{\contentsline {figure}{\numberline {2}{\ignorespaces Répartition des résultats obtenus lors de 40 lancers d'un dé à 6 faces (avec 1000000 tirages)}}{9}{figure.2}\protected@file@percent }
\newlabel{fig:dist_dice}{{2}{9}{Répartition des résultats obtenus lors de 40 lancers d'un dé à 6 faces (avec 1000000 tirages)}{figure.2}{}}
\@writefile{toc}{\contentsline {subsection}{\numberline {6.2}Test d'un modèle analytique de la loi gaussienne}{9}{subsection.6.2}\protected@file@percent }
\@writefile{lof}{\contentsline {figure}{\numberline {3}{\ignorespaces Répartition des résultats obtenus lors de la simulation d'une loi normale centrée réduite (avec 1000 expériences)}}{10}{figure.3}\protected@file@percent }
\newlabel{fig:dist_gauss_1000}{{3}{10}{Répartition des résultats obtenus lors de la simulation d'une loi normale centrée réduite (avec 1000 expériences)}{figure.3}{}}
\@writefile{lof}{\contentsline {figure}{\numberline {4}{\ignorespaces Répartition des résultats obtenus lors de la simulation d'une loi normale centrée réduite (avec 1000000 expériences)}}{10}{figure.4}\protected@file@percent }
\newlabel{fig:dist_gauss_1000000}{{4}{10}{Répartition des résultats obtenus lors de la simulation d'une loi normale centrée réduite (avec 1000000 expériences)}{figure.4}{}}
\@writefile{toc}{\contentsline {section}{\numberline {7}Ouverture : Dans d'autres langages de programmation}{10}{section.7}\protected@file@percent }
\@writefile{toc}{\contentsline {section}{\numberline {8}Conclusion}{11}{section.8}\protected@file@percent }
\gdef \@abspage@last{12}
